[+] Containers:
 |- [+] Container: /Game/ThirdPerson/Maps/ThirdPersonMap
 |   |- [+] ActorDescs:
 |   |   |- Guid:0741C71B4517A08335BF6BB62042EC53 BaseClass: NativeClass:/Script/Engine.StaticMeshActor Name:StaticMeshActor_UAID_00FFDD0259B66B5A01_2069164045 Label:SM_Cube13 SpatiallyLoaded:1 Bounds:IsValid=true, Min=(X=160.000 Y=5631.000 Z=-50.000), Max=(X=560.000 Y=6856.000 Z=200.000) RuntimeGrid:None EditorOnly:0 RuntimeOnly:0 HLODRelevant:1 FolderPath:Block03 FolderGuid:7B7009C345D3D6DD94D3429E1D79C034
 |   |   |- Guid:08F9DC56444CFFF3F13B379E81EF05BC BaseClass: NativeClass:/Script/Engine.StaticMeshActor Name:StaticMeshActor_16 Label:SM_Cube11 SpatiallyLoaded:1 Bounds:IsValid=true, Min=(X=1930.000 Y=530.000 Z=-60.000), Max=(X=2230.000 Y=830.000 Z=140.000) RuntimeGrid:None EditorOnly:0 RuntimeOnly:0 HLODRelevant:1 FolderPath:Block03 FolderGuid:7B7009C345D3D6DD94D3429E1D79C034
 |   |   |- Guid:0A733B864C327F0B589EC8BBDD0265BC BaseClass: NativeClass:/Script/Engine.StaticMeshActor Name:StaticMeshActor_13 Label:SM_Cube9 SpatiallyLoaded:1 Bounds:IsValid=true, Min=(X=650.049 Y=2233.022 Z=0.000), Max=(X=1314.837 Y=2836.182 Z=100.000) RuntimeGrid:None EditorOnly:0 RuntimeOnly:0 HLODRelevant:1 FolderPath:Block01 FolderGuid:7D23E5AE4C2A421F86AF6986D87E6D05
 |   |   |- Guid:1398503C416ADE2B4A93B59FD06A3A2F BaseClass: NativeClass:/Script/Engine.StaticMeshActor Name:StaticMeshActor_UAID_00FFDD0259B66B5A01_1365537034 Label:S_Quarry_Cliff_ub3sahcda_high6 SpatiallyLoaded:1 Bounds:IsValid=true, Min=(X=-3366.087 Y=3705.025 Z=-161.085), Max=(X=310.575 Y=4082.888 Z=1945.130) RuntimeGrid:None EditorOnly:0 RuntimeOnly:0 HLODRelevant:1
 |   |   |- Guid:1A789DC8415097E9856E5DB60740F01D BaseClass: NativeClass:/Script/Engine.StaticMeshActor Name:StaticMeshActor_34 Label:SM_QuarterCylinder13 SpatiallyLoaded:1 Bounds:IsValid=true, Min=(X=1350.000 Y=500.000 Z=-80.000), Max=(X=1550.000 Y=700.000 Z=20.000) RuntimeGrid:None EditorOnly:0 RuntimeOnly:0 HLODRelevant:1 FolderPath:Cylinder FolderGuid:D075E5BA49330D3EC2503D81A7CF88D1
 |   |   |- Guid:211463D64B0BBB530A1B049841968BAE BaseClass: NativeClass:/Script/Engine.StaticMeshActor Name:StaticMeshActor_UAID_00FFDD0259B6235401_1964234023 Label:SM_Cube14 SpatiallyLoaded:1 Bounds:IsValid=true, Min=(X=2360.000 Y=535.093 Z=0.000), Max=(X=2686.231 Y=842.836 Z=225.000) RuntimeGrid:None EditorOnly:0 RuntimeOnly:0 HLODRelevant:1 FolderPath:Block01 FolderGuid:7D23E5AE4C2A421F86AF6986D87E6D05
 |   |   |- Guid:21E5885D4EEB9313A52C67B31A93C9C0 BaseClass: NativeClass:/Script/Engine.StaticMeshActor Name:StaticMeshActor_UAID_00FFDD0259B60F5601_1551845637 Label:S_Limestone_Slab_ubvtce1da_high6 SpatiallyLoaded:1 Bounds:IsValid=true, Min=(X=1519.169 Y=1548.587 Z=-6.844), Max=(X=2157.331 Y=2153.108 Z=197.614) RuntimeGrid:None EditorOnly:0 RuntimeOnly:0 HLODRelevant:1
 |   |   |- Guid:2AE07F1E4D8AE16C47705695ADF9DA00 BaseClass: NativeClass:/Script/Engine.StaticMeshActor Name:StaticMeshActor_UAID_00FFDD0259B66B5A01_1169410031 Label:SM_Cube2 SpatiallyLoaded:1 Bounds:IsValid=true, Min=(X=-1050.000 Y=3460.000 Z=-50.000), Max=(X=1950.000 Y=6960.000 Z=0.000) RuntimeGrid:None EditorOnly:0 RuntimeOnly:0 HLODRelevant:1 FolderPath:Playground FolderGuid:C73F09FC4215536B1DCE2A9E0A830C70
 |   |   |- Guid:2AE562DD4761C10AE4795BB7BD2DEACD BaseClass: NativeClass:/Script/Engine.StaticMeshActor Name:StaticMeshActor_UAID_00FFDD0259B60F5601_1537128635 Label:S_Limestone_Slab_ubvtce1da_high4 SpatiallyLoaded:1 Bounds:IsValid=true, Min=(X=1919.169 Y=1148.587 Z=-6.844), Max=(X=2557.331 Y=1753.108 Z=197.614) RuntimeGrid:None EditorOnly:0 RuntimeOnly:0 HLODRelevant:1
 |   |   |- Guid:2FB58999456391D349DC0F86DAC136ED BaseClass: NativeClass:/Script/Engine.SkyLight Name:SkyLight_1 Label:SkyLight SpatiallyLoaded:0 Bounds:IsValid=true, Min=(X=0.000 Y=0.000 Z=690.000), Max=(X=0.000 Y=0.000 Z=690.000) RuntimeGrid:None EditorOnly:0 RuntimeOnly:0 HLODRelevant:0 FolderPath:Lighting FolderGuid:963EC3EB4002CCE9759E2EBA541A873A
 |   |   |- Guid:316CF2A6494ACA4C0E4180A87D36AB8F BaseClass: NativeClass:/Script/Engine.ExponentialHeightFog Name:ExponentialHeightFog_0 Label:ExponentialHeightFog SpatiallyLoaded:0 Bounds:IsValid=true, Min=(X=-5600.000 Y=-50.000 Z=-6850.000), Max=(X=-5600.000 Y=-50.000 Z=-6850.000) RuntimeGrid:None EditorOnly:0 RuntimeOnly:0 HLODRelevant:0 FolderPath:Lighting FolderGuid:963EC3EB4002CCE9759E2EBA541A873A
 |   |   |- Guid:37FF61EB47CEFD07FA887DA05532ABAD BaseClass: NativeClass:/Script/Engine.StaticMeshActor Name:StaticMeshActor_UAID_00FFDD0259B60F5601_1674433640 Label:S_Quarry_Cliff_ubhwbepda_high3 SpatiallyLoaded:1 Bounds:IsValid=true, Min=(X=-330.530 Y=-359.470 Z=-204.270), Max=(X=929.986 Y=898.427 Z=1863.023) RuntimeGrid:None EditorOnly:0 RuntimeOnly:0 HLODRelevant:1
 |   |   |- Guid:3A00AA1C422CE54C0BDB60BAF471BFBB BaseClass: NativeClass:/Script/Engine.PlayerStart Name:PlayerStart_0 Label:PlayerStart SpatiallyLoaded:0 Bounds:IsValid=true, Min=(X=282.000 Y=4304.000 Z=224.013), Max=(X=362.000 Y=4384.000 Z=408.013) RuntimeGrid:None EditorOnly:0 RuntimeOnly:0 HLODRelevant:0
 |   |   |- Guid:3F6C09DD449F1FD5767D99A898860649 BaseClass: NativeClass:/Script/Engine.StaticMeshActor Name:StaticMeshActor_UAID_00FFDD0259B66B5A01_1469111039 Label:S_Quarry_Cliff_ub3sahcda_high9 SpatiallyLoaded:1 Bounds:IsValid=true, Min=(X=543.913 Y=6913.556 Z=-161.085), Max=(X=4220.575 Y=7313.646 Z=1945.130) RuntimeGrid:None EditorOnly:0 RuntimeOnly:0 HLODRelevant:1
 |   |   |- Guid:409158E94817DC9743D7A29A16EE5600 BaseClass: NativeClass:/Script/Engine.DirectionalLight Name:DirectionalLight_UAID_00FFDD0259B66B5A01_1621714041 Label:DirectionalLight2 SpatiallyLoaded:0 Bounds:IsValid=true, Min=(X=-4398046511104.000 Y=-4398046511104.000 Z=-4398046511104.000), Max=(X=4398046511104.000 Y=4398046511104.000 Z=4398046511104.000) RuntimeGrid:None EditorOnly:0 RuntimeOnly:0 HLODRelevant:0 FolderPath:Lighting FolderGuid:963EC3EB4002CCE9759E2EBA541A873A
 |   |   |- Guid:4BC4F1A24304E025D44B8DA697903255 BaseClass: NativeClass:/Script/Engine.StaticMeshActor Name:StaticMeshActor_UAID_00FFDD0259B66C5A01_1225181224 Label:Sphere3 SpatiallyLoaded:1 Bounds:IsValid=true, Min=(X=-469.000 Y=5505.000 Z=293.000), Max=(X=-369.000 Y=5605.000 Z=393.000) RuntimeGrid:None EditorOnly:0 RuntimeOnly:0 HLODRelevant:0
 |   |   |- Guid:4C46A3914D6222B4212630926566D1B0 BaseClass: NativeClass:/Script/Engine.StaticMeshActor Name:StaticMeshActor_UAID_00FFDD0259B66B5A01_1337556033 Label:S_Quarry_Cliff_ub3sahcda_high5 SpatiallyLoaded:1 Bounds:IsValid=true, Min=(X=543.913 Y=3733.556 Z=-161.085), Max=(X=4220.575 Y=4133.646 Z=1945.130) RuntimeGrid:None EditorOnly:0 RuntimeOnly:0 HLODRelevant:1
 |   |   |- Guid:4D3BE93F4146AAAC8BBE79999D96D57F BaseClass: NativeClass:/Script/Engine.VolumetricCloud Name:VolumetricCloud_0 Label:VolumetricCloud SpatiallyLoaded:0 Bounds:IsValid=true, Min=(X=0.000 Y=0.000 Z=820.000), Max=(X=0.000 Y=0.000 Z=820.000) RuntimeGrid:None EditorOnly:0 RuntimeOnly:0 HLODRelevant:0 FolderPath:Lighting FolderGuid:963EC3EB4002CCE9759E2EBA541A873A
 |   |   |- Guid:4D6160FC43583878DBF9DA9FC2C978B7 BaseClass: NativeClass:/Script/Engine.StaticMeshActor Name:StaticMeshActor_UAID_00FFDD0259B66B5A01_1469112040 Label:S_Quarry_Cliff_ub3sahcda_high10 SpatiallyLoaded:1 Bounds:IsValid=true, Min=(X=-3366.087 Y=6885.025 Z=-161.085), Max=(X=310.575 Y=7262.888 Z=1945.130) RuntimeGrid:None EditorOnly:0 RuntimeOnly:0 HLODRelevant:1
 |   |   |- Guid:504F76D944A2BDCC0A3AA8BD84F93017 BaseClass: NativeClass:/Script/Engine.StaticMeshActor Name:StaticMeshActor_UAID_00FFDD0259B60F5601_1646980639 Label:S_Quarry_Cliff_ubhwbepda_high2 SpatiallyLoaded:1 Bounds:IsValid=true, Min=(X=2226.913 Y=-202.515 Z=-184.270), Max=(X=3253.718 Y=841.522 Z=1883.023) RuntimeGrid:None EditorOnly:0 RuntimeOnly:0 HLODRelevant:1
 |   |   |- Guid:5B97F4A64FB21F77EFC44386BF705B4C BaseClass: NativeClass:/Script/Engine.TextRenderActor Name:TextRenderActor_1 Label:TextRenderActor SpatiallyLoaded:1 Bounds:IsValid=true, Min=(X=-0.100 Y=1100.000 Z=65.013), Max=(X=-0.100 Y=2392.308 Z=215.013) RuntimeGrid:None EditorOnly:0 RuntimeOnly:0 HLODRelevant:0
 |   |   |- Guid:5D42EF364C1E6DF500062482D681F64A BaseClass: NativeClass:/Script/Engine.StaticMeshActor Name:StaticMeshActor_UAID_00FFDD0259B66B5A01_1797852042 Label:Cube SpatiallyLoaded:1 Bounds:IsValid=true, Min=(X=340.000 Y=5005.000 Z=201.000), Max=(X=440.000 Y=5105.000 Z=301.000) RuntimeGrid:None EditorOnly:0 RuntimeOnly:0 HLODRelevant:0
 |   |   |- Guid:5E4DB4154690C8B4EB14EAA9E92FAAFF BaseClass: NativeClass:/Script/Engine.StaticMeshActor Name:StaticMeshActor_33 Label:SM_QuarterCylinder12 SpatiallyLoaded:1 Bounds:IsValid=true, Min=(X=1350.000 Y=700.000 Z=-80.000), Max=(X=1550.000 Y=900.000 Z=20.000) RuntimeGrid:None EditorOnly:0 RuntimeOnly:0 HLODRelevant:1 FolderPath:Cylinder FolderGuid:D075E5BA49330D3EC2503D81A7CF88D1
 |   |   |- Guid:6A053ED246DA52E21A083E8EBC2F2D60 BaseClass: NativeClass:/Script/Engine.StaticMeshActor Name:StaticMeshActor_UAID_00FFDD0259B66B5A01_1408941035 Label:S_Quarry_Cliff_ubhvccfda_high2 SpatiallyLoaded:1 Bounds:IsValid=true, Min=(X=1656.203 Y=3491.181 Z=-3023.578), Max=(X=2582.444 Y=8224.972 Z=1942.958) RuntimeGrid:None EditorOnly:0 RuntimeOnly:0 HLODRelevant:1
 |   |   |- Guid:6BAF4DDD444C60371492D3919DB42C97 BaseClass: NativeClass:/Script/Engine.WorldDataLayers Name:WorldDataLayers Label:WorldDataLayers SpatiallyLoaded:0 Bounds:IsValid=true, Min=(X=0.000 Y=0.000 Z=0.000), Max=(X=0.000 Y=0.000 Z=0.000) RuntimeGrid:None EditorOnly:0 RuntimeOnly:0 HLODRelevant:0
 |   |   |- Guid:6CFB67064E53D6A80E3CC399F0EAED80 BaseClass: NativeClass:/Script/Engine.StaticMeshActor Name:StaticMeshActor_UAID_00FFDD0259B60F5601_1614676638 Label:S_Quarry_Cliff_ubhwbepda_high SpatiallyLoaded:1 Bounds:IsValid=true, Min=(X=2214.466 Y=2660.777 Z=-144.270), Max=(X=3366.402 Y=3800.017 Z=1923.023) RuntimeGrid:None EditorOnly:0 RuntimeOnly:0 HLODRelevant:1
 |   |   |- Guid:6E437891449A8C2C052AB1A201C83CFA BaseClass: NativeClass:/Script/Engine.StaticMeshActor Name:StaticMeshActor_UAID_00FFDD0259B60E5601_1869112441 Label:S_Quarry_Cliff_ubhvccfda_high SpatiallyLoaded:1 Bounds:IsValid=true, Min=(X=2836.203 Y=-888.819 Z=-3023.578), Max=(X=3762.444 Y=3844.972 Z=1942.958) RuntimeGrid:None EditorOnly:0 RuntimeOnly:0 HLODRelevant:1
 |   |   |- Guid:6FD76BC84BA0EA1EF21BE0AA934CFF6F BaseClass: NativeClass:/Script/Engine.StaticMeshActor Name:StaticMeshActor_UAID_00FFDD0259B60F5601_1489837634 Label:S_Limestone_Slab_ubvtce1da_high3 SpatiallyLoaded:1 Bounds:IsValid=true, Min=(X=2022.669 Y=976.892 Z=-6.844), Max=(X=2660.831 Y=1581.413 Z=197.614) RuntimeGrid:None EditorOnly:0 RuntimeOnly:0 HLODRelevant:1
 |   |   |- Guid:74E13C36403C5C76C8D6B4BADFEB88B8 BaseClass: NativeClass:/Script/Engine.StaticMeshActor Name:StaticMeshActor_UAID_00FFDD0259B66C5A01_1210293222 Label:Sphere SpatiallyLoaded:1 Bounds:IsValid=true, Min=(X=460.000 Y=5505.000 Z=293.000), Max=(X=560.000 Y=5605.000 Z=393.000) RuntimeGrid:None EditorOnly:0 RuntimeOnly:0 HLODRelevant:0
 |   |   |- Guid:7C172A0740B33B6D38EEF38A63E0B945 BaseClass: NativeClass:/Script/Engine.StaticMeshActor Name:StaticMeshActor_3 Label:SM_Ramp SpatiallyLoaded:1 Bounds:IsValid=true, Min=(X=720.000 Y=600.000 Z=0.000), Max=(X=1120.000 Y=800.000 Z=30.000) RuntimeGrid:None EditorOnly:0 RuntimeOnly:0 HLODRelevant:1
 |   |   |- Guid:82561FF248E44B4DA5F8A99C8FCE2D85 BaseClass:/Game/BP_CollectibleArtifact1.BP_CollectibleArtifact1_C NativeClass:/Script/Engine.StaticMeshActor Name:BP_CollectibleArtifact1_C_UAID_00FFDD0259B6635D01_2141207793 Label:BP_CollectibleArtifact1 SpatiallyLoaded:1 Bounds:IsValid=true, Min=(X=270.977 Y=4952.580 Z=241.600), Max=(X=327.023 Y=4991.420 Z=342.187) RuntimeGrid:None EditorOnly:0 RuntimeOnly:0 HLODRelevant:0
 |   |   |- Guid:82D024F94B84A826BDA3BCBD88824287 BaseClass:/Game/BP_CoinPickup.BP_CoinPickup_C NativeClass:/Script/Engine.StaticMeshActor Name:BP_CoinPickup_C_UAID_00FFDD0259B66C5A01_1394086226 Label:BP_CoinPickup SpatiallyLoaded:1 Bounds:IsValid=true, Min=(X=145.089 Y=4825.022 Z=82.089), Max=(X=632.911 Y=4946.978 Z=569.911) RuntimeGrid:None EditorOnly:0 RuntimeOnly:0 HLODRelevant:0
 |   |   |- Guid:843CBDCA46685E35D0825798744085D3 BaseClass: NativeClass:/Script/Engine.StaticMeshActor Name:StaticMeshActor_UAID_00FFDD0259B66B5A01_1426237036 Label:S_Quarry_Cliff_ubjuddqda_high2 SpatiallyLoaded:1 Bounds:IsValid=true, Min=(X=-1083.205 Y=3485.264 Z=-1975.706), Max=(X=-734.182 Y=7408.699 Z=2014.614) RuntimeGrid:None EditorOnly:0 RuntimeOnly:0 HLODRelevant:1
 |   |   |- Guid:926FBA4943D77D1DBC96BABF430F1692 BaseClass: NativeClass:/Script/Engine.StaticMeshActor Name:StaticMeshActor_UAID_00FFDD0259B60E5601_1832356440 Label:S_Quarry_Cliff_ub3sahcda_high4 SpatiallyLoaded:1 Bounds:IsValid=true, Min=(X=-3366.087 Y=3261.805 Z=-161.085), Max=(X=310.575 Y=3795.259 Z=1945.130) RuntimeGrid:None EditorOnly:0 RuntimeOnly:0 HLODRelevant:1
 |   |   |- Guid:94F6D9A645798F5BAD0B58BEED8F27F5 BaseClass: NativeClass:/Script/Engine.StaticMeshActor Name:StaticMeshActor_32 Label:SM_QuarterCylinder11 SpatiallyLoaded:1 Bounds:IsValid=true, Min=(X=1550.000 Y=700.000 Z=-80.000), Max=(X=1750.000 Y=900.000 Z=20.000) RuntimeGrid:None EditorOnly:0 RuntimeOnly:0 HLODRelevant:1 FolderPath:Cylinder FolderGuid:D075E5BA49330D3EC2503D81A7CF88D1
 |   |   |- Guid:9BFF363746062F457E2F92A4631DBA20 BaseClass: NativeClass:/Script/Engine.StaticMeshActor Name:StaticMeshActor_11 Label:SM_ChamferCube3 SpatiallyLoaded:1 Bounds:IsValid=true, Min=(X=431.699 Y=2391.699 Z=0.013), Max=(X=568.301 Y=2528.301 Z=100.013) RuntimeGrid:None EditorOnly:0 RuntimeOnly:0 HLODRelevant:0
 |   |   |- Guid:A26BBB854B85C4092D1F0095ED64A6F3 BaseClass: NativeClass:/Script/Engine.StaticMeshActor Name:StaticMeshActor_UAID_00FFDD0259B60F5601_1096199624 Label:S_Limestone_Rocks_ubvsaf3da_high SpatiallyLoaded:1 Bounds:IsValid=true, Min=(X=1353.997 Y=507.985 Z=15.360), Max=(X=1745.982 Y=892.016 Z=56.488) RuntimeGrid:None EditorOnly:0 RuntimeOnly:0 HLODRelevant:1
 |   |   |- Guid:A62A9EE8460B327ECE8E21830711F178 BaseClass: NativeClass:/Script/Engine.StaticMeshActor Name:StaticMeshActor_UAID_00FFDD0259B66C5A01_1222901223 Label:Sphere2 SpatiallyLoaded:1 Bounds:IsValid=true, Min=(X=-60.000 Y=5505.000 Z=293.000), Max=(X=40.000 Y=5605.000 Z=393.000) RuntimeGrid:None EditorOnly:0 RuntimeOnly:0 HLODRelevant:0
 |   |   |- Guid:A804501D4EF6CC653623F48AD106CB84 BaseClass: NativeClass:/Script/Engine.StaticMeshActor Name:StaticMeshActor_UAID_00FFDD0259B66B5A01_1892157043 Label:SM_Ramp2 SpatiallyLoaded:1 Bounds:IsValid=true, Min=(X=160.000 Y=3875.000 Z=0.000), Max=(X=560.000 Y=4600.000 Z=200.000) RuntimeGrid:None EditorOnly:0 RuntimeOnly:0 HLODRelevant:1
 |   |   |- Guid:AB74120142217676C6EC818E6B49412B BaseClass: NativeClass:/Script/Engine.StaticMeshActor Name:StaticMeshActor_15 Label:SM_Cube10 SpatiallyLoaded:1 Bounds:IsValid=true, Min=(X=337.301 Y=2714.789 Z=0.000), Max=(X=537.301 Y=2914.789 Z=125.000) RuntimeGrid:None EditorOnly:0 RuntimeOnly:0 HLODRelevant:1 FolderPath:Block01 FolderGuid:7D23E5AE4C2A421F86AF6986D87E6D05
 |   |   |- Guid:B090A86D49BB87061191EA9231C27823 BaseClass: NativeClass:/Script/Engine.StaticMeshActor Name:StaticMeshActor_UAID_00FFDD0259B6CD5401_1370514944 Label:S_Quarry_Cliff_ub3sahcda_high2 SpatiallyLoaded:1 Bounds:IsValid=true, Min=(X=-360.575 Y=-185.259 Z=-161.085), Max=(X=3316.087 Y=348.195 Z=1945.130) RuntimeGrid:None EditorOnly:0 RuntimeOnly:0 HLODRelevant:1
 |   |   |- Guid:B785ED2844B84CFB91E7F39FE661CD99 BaseClass: NativeClass:/Script/Engine.DirectionalLight Name:DirectionalLight_0 Label:DirectionalLight SpatiallyLoaded:0 Bounds:IsValid=true, Min=(X=-4398046511104.000 Y=-4398046511104.000 Z=-4398046511104.000), Max=(X=4398046511104.000 Y=4398046511104.000 Z=4398046511104.000) RuntimeGrid:None EditorOnly:0 RuntimeOnly:0 HLODRelevant:0 FolderPath:Lighting FolderGuid:963EC3EB4002CCE9759E2EBA541A873A
 |   |   |- Guid:BB5B9BE2422803C7BF3842B4F08950C1 BaseClass: NativeClass:/Script/Engine.StaticMeshActor Name:StaticMeshActor_UAID_00FFDD0259B60F5601_1350231632 Label:S_Limestone_Slab_ubvtce1da_high SpatiallyLoaded:1 Bounds:IsValid=true, Min=(X=1279.243 Y=2121.771 Z=-23.650), Max=(X=1540.938 Y=2455.643 Z=85.394) RuntimeGrid:None EditorOnly:0 RuntimeOnly:0 HLODRelevant:1
 |   |   |- Guid:C15C2C8D4EA4ADE0BD1349AFD814988B BaseClass: NativeClass:/Script/Engine.StaticMeshActor Name:StaticMeshActor_14 Label:SM_Ramp3 SpatiallyLoaded:1 Bounds:IsValid=true, Min=(X=337.301 Y=2914.789 Z=0.000), Max=(X=537.301 Y=3414.789 Z=125.000) RuntimeGrid:None EditorOnly:0 RuntimeOnly:0 HLODRelevant:1 FolderPath:Block01 FolderGuid:7D23E5AE4C2A421F86AF6986D87E6D05
 |   |   |- Guid:CBA69B384ED167D8CC89CFADC2E510D8 BaseClass: NativeClass:/Script/Engine.StaticMeshActor Name:StaticMeshActor_UAID_00FFDD0259B66B5A01_1469108037 Label:S_Quarry_Cliff_ub3sahcda_high7 SpatiallyLoaded:1 Bounds:IsValid=true, Min=(X=543.913 Y=6441.805 Z=-161.085), Max=(X=4220.575 Y=6975.259 Z=1945.130) RuntimeGrid:None EditorOnly:0 RuntimeOnly:0 HLODRelevant:1
 |   |   |- Guid:CCFF262C46EEFFDF319E7F9539CE697E BaseClass: NativeClass:/Script/Engine.SkyAtmosphere Name:SkyAtmosphere_0 Label:SkyAtmosphere SpatiallyLoaded:0 Bounds:IsValid=true, Min=(X=0.000 Y=0.000 Z=1020.000), Max=(X=0.000 Y=0.000 Z=1020.000) RuntimeGrid:None EditorOnly:0 RuntimeOnly:0 HLODRelevant:0 FolderPath:Lighting FolderGuid:963EC3EB4002CCE9759E2EBA541A873A
 |   |   |- Guid:D9706FE5481EB10EB35A098FAB21445E BaseClass: NativeClass:/Script/Engine.StaticMeshActor Name:StaticMeshActor_UAID_00FFDD0259B60E5601_1928945446 Label:S_Quarry_Cliff_ubjuddqda_high SpatiallyLoaded:1 Bounds:IsValid=true, Min=(X=-133.205 Y=-394.736 Z=-1975.706), Max=(X=215.818 Y=3528.699 Z=2014.614) RuntimeGrid:None EditorOnly:0 RuntimeOnly:0 HLODRelevant:1
 |   |   |- Guid:DE3A079B4635A6D8D620CCBC6C0BB1C0 BaseClass: NativeClass:/Script/Engine.StaticMeshActor Name:StaticMeshActor_35 Label:SM_QuarterCylinder14 SpatiallyLoaded:1 Bounds:IsValid=true, Min=(X=1550.000 Y=500.000 Z=-80.000), Max=(X=1750.000 Y=700.000 Z=20.000) RuntimeGrid:None EditorOnly:0 RuntimeOnly:0 HLODRelevant:1 FolderPath:Cylinder FolderGuid:D075E5BA49330D3EC2503D81A7CF88D1
 |   |   |- Guid:E65FF5CB457CEB24DFC97BB2C73FD735 BaseClass: NativeClass:/Script/Engine.StaticMeshActor Name:StaticMeshActor_UAID_00FFDD0259B66B5A01_1469111038 Label:S_Quarry_Cliff_ub3sahcda_high8 SpatiallyLoaded:1 Bounds:IsValid=true, Min=(X=-3366.087 Y=6441.805 Z=-161.085), Max=(X=310.575 Y=6975.259 Z=1945.130) RuntimeGrid:None EditorOnly:0 RuntimeOnly:0 HLODRelevant:1
 |   |   |- Guid:EA9C6C094B976D14319539B7716EA00D BaseClass: NativeClass:/Script/Engine.StaticMeshActor Name:StaticMeshActor_UAID_00FFDD0259B60E5601_1809298439 Label:S_Quarry_Cliff_ub3sahcda_high3 SpatiallyLoaded:1 Bounds:IsValid=true, Min=(X=543.913 Y=3261.805 Z=-161.085), Max=(X=4220.575 Y=3795.259 Z=1945.130) RuntimeGrid:None EditorOnly:0 RuntimeOnly:0 HLODRelevant:1
 |   |   |- Guid:EC4E0C944CE6AC6E784BC6BB2916EA13 BaseClass: NativeClass:/Script/Engine.StaticMeshActor Name:StaticMeshActor_UAID_A4AE111137DC5EFB00_1110535423 Label:SM_SkySphere SpatiallyLoaded:0 Bounds:IsValid=true, Min=(X=-2238096.034 Y=-2238096.034 Z=-1638400.000), Max=(X=2238096.034 Y=2238096.034 Z=1638400.000) RuntimeGrid:None EditorOnly:0 RuntimeOnly:0 HLODRelevant:1 FolderPath:Lighting FolderGuid:963EC3EB4002CCE9759E2EBA541A873A
 |   |   |- Guid:F1924B8D48954B30891B2DB6A694F9CC BaseClass: NativeClass:/Script/Engine.StaticMeshActor Name:StaticMeshActor_1 Label:SM_Cube SpatiallyLoaded:1 Bounds:IsValid=true, Min=(X=0.000 Y=0.000 Z=-50.000), Max=(X=3000.000 Y=3500.000 Z=0.000) RuntimeGrid:None EditorOnly:0 RuntimeOnly:0 HLODRelevant:1 FolderPath:Playground FolderGuid:C73F09FC4215536B1DCE2A9E0A830C70
 |   |   |- Guid:F31FC2FA49A4C78A2C91A7A5015B9831 BaseClass: NativeClass:/Script/Engine.StaticMeshActor Name:StaticMeshActor_UAID_00FFDD0259B66B5A01_1928582044 Label:SM_Cube12 SpatiallyLoaded:1 Bounds:IsValid=true, Min=(X=160.000 Y=4590.000 Z=-50.000), Max=(X=560.000 Y=5140.000 Z=200.000) RuntimeGrid:None EditorOnly:0 RuntimeOnly:0 HLODRelevant:1 FolderPath:Block03 FolderGuid:7B7009C345D3D6DD94D3429E1D79C034
 |   |   |- Guid:F565E0974BCF996C192FA7A31CE1B90A BaseClass: NativeClass:/Script/Engine.StaticMeshActor Name:StaticMeshActor_UAID_00FFDD0259B60F5601_1434422633 Label:S_Limestone_Slab_ubvtce1da_high2 SpatiallyLoaded:1 Bounds:IsValid=true, Min=(X=-59.478 Y=3324.284 Z=-322.548), Max=(X=840.100 Y=4367.634 Z=52.292) RuntimeGrid:None EditorOnly:0 RuntimeOnly:0 HLODRelevant:1
 |   |   |- Guid:F5E3FEB3450C49844FD93DA8E083C8AD BaseClass: NativeClass:/Script/Engine.PostProcessVolume Name:PostProcessVolume_0 Label:PostProcessVolume SpatiallyLoaded:0 Bounds:IsValid=true, Min=(X=0.000 Y=0.000 Z=400.000), Max=(X=200.000 Y=200.000 Z=600.000) RuntimeGrid:None EditorOnly:0 RuntimeOnly:0 HLODRelevant:0 FolderPath:Lighting FolderGuid:963EC3EB4002CCE9759E2EBA541A873A
 |   |   |- Guid:FF19C8674229635F34D351AFFE0AC0BD BaseClass: NativeClass:/Script/Engine.StaticMeshActor Name:StaticMeshActor_UAID_00FFDD0259B60F5601_1551844636 Label:S_Limestone_Slab_ubvtce1da_high5 SpatiallyLoaded:1 Bounds:IsValid=true, Min=(X=1622.669 Y=1376.892 Z=-6.844), Max=(X=2260.831 Y=1981.413 Z=197.614) RuntimeGrid:None EditorOnly:0 RuntimeOnly:0 HLODRelevant:1
 |   |- [+] Clusters:
 |   |   |- [+] [  0]
 |   |   |   |- Guid:6BAF4DDD444C60371492D3919DB42C97 BaseClass: NativeClass:/Script/Engine.WorldDataLayers Name:WorldDataLayers Label:WorldDataLayers SpatiallyLoaded:0 Bounds:IsValid=true, Min=(X=0.000 Y=0.000 Z=0.000), Max=(X=0.000 Y=0.000 Z=0.000) RuntimeGrid:None EditorOnly:0 RuntimeOnly:0 HLODRelevant:0
 |   |   |- [+] [  1]
 |   |   |   |- Guid:B090A86D49BB87061191EA9231C27823 BaseClass: NativeClass:/Script/Engine.StaticMeshActor Name:StaticMeshActor_UAID_00FFDD0259B6CD5401_1370514944 Label:S_Quarry_Cliff_ub3sahcda_high2 SpatiallyLoaded:1 Bounds:IsValid=true, Min=(X=-360.575 Y=-185.259 Z=-161.085), Max=(X=3316.087 Y=348.195 Z=1945.130) RuntimeGrid:None EditorOnly:0 RuntimeOnly:0 HLODRelevant:1
 |   |   |- [+] [  2]
 |   |   |   |- Guid:F5E3FEB3450C49844FD93DA8E083C8AD BaseClass: NativeClass:/Script/Engine.PostProcessVolume Name:PostProcessVolume_0 Label:PostProcessVolume SpatiallyLoaded:0 Bounds:IsValid=true, Min=(X=0.000 Y=0.000 Z=400.000), Max=(X=200.000 Y=200.000 Z=600.000) RuntimeGrid:None EditorOnly:0 RuntimeOnly:0 HLODRelevant:0 FolderPath:Lighting FolderGuid:963EC3EB4002CCE9759E2EBA541A873A
 |   |   |- [+] [  3]
 |   |   |   |- Guid:4D6160FC43583878DBF9DA9FC2C978B7 BaseClass: NativeClass:/Script/Engine.StaticMeshActor Name:StaticMeshActor_UAID_00FFDD0259B66B5A01_1469112040 Label:S_Quarry_Cliff_ub3sahcda_high10 SpatiallyLoaded:1 Bounds:IsValid=true, Min=(X=-3366.087 Y=6885.025 Z=-161.085), Max=(X=310.575 Y=7262.888 Z=1945.130) RuntimeGrid:None EditorOnly:0 RuntimeOnly:0 HLODRelevant:1
 |   |   |- [+] [  4]
 |   |   |   |- Guid:5B97F4A64FB21F77EFC44386BF705B4C BaseClass: NativeClass:/Script/Engine.TextRenderActor Name:TextRenderActor_1 Label:TextRenderActor SpatiallyLoaded:1 Bounds:IsValid=true, Min=(X=-0.100 Y=1100.000 Z=65.013), Max=(X=-0.100 Y=2392.308 Z=215.013) RuntimeGrid:None EditorOnly:0 RuntimeOnly:0 HLODRelevant:0
 |   |   |- [+] [  5]
 |   |   |   |- Guid:FF19C8674229635F34D351AFFE0AC0BD BaseClass: NativeClass:/Script/Engine.StaticMeshActor Name:StaticMeshActor_UAID_00FFDD0259B60F5601_1551844636 Label:S_Limestone_Slab_ubvtce1da_high5 SpatiallyLoaded:1 Bounds:IsValid=true, Min=(X=1622.669 Y=1376.892 Z=-6.844), Max=(X=2260.831 Y=1981.413 Z=197.614) RuntimeGrid:None EditorOnly:0 RuntimeOnly:0 HLODRelevant:1
 |   |   |- [+] [  6]
 |   |   |   |- Guid:4D3BE93F4146AAAC8BBE79999D96D57F BaseClass: NativeClass:/Script/Engine.VolumetricCloud Name:VolumetricCloud_0 Label:VolumetricCloud SpatiallyLoaded:0 Bounds:IsValid=true, Min=(X=0.000 Y=0.000 Z=820.000), Max=(X=0.000 Y=0.000 Z=820.000) RuntimeGrid:None EditorOnly:0 RuntimeOnly:0 HLODRelevant:0 FolderPath:Lighting FolderGuid:963EC3EB4002CCE9759E2EBA541A873A
 |   |   |- [+] [  7]
 |   |   |   |- Guid:1A789DC8415097E9856E5DB60740F01D BaseClass: NativeClass:/Script/Engine.StaticMeshActor Name:StaticMeshActor_34 Label:SM_QuarterCylinder13 SpatiallyLoaded:1 Bounds:IsValid=true, Min=(X=1350.000 Y=500.000 Z=-80.000), Max=(X=1550.000 Y=700.000 Z=20.000) RuntimeGrid:None EditorOnly:0 RuntimeOnly:0 HLODRelevant:1 FolderPath:Cylinder FolderGuid:D075E5BA49330D3EC2503D81A7CF88D1
 |   |   |- [+] [  8]
 |   |   |   |- Guid:4C46A3914D6222B4212630926566D1B0 BaseClass: NativeClass:/Script/Engine.StaticMeshActor Name:StaticMeshActor_UAID_00FFDD0259B66B5A01_1337556033 Label:S_Quarry_Cliff_ub3sahcda_high5 SpatiallyLoaded:1 Bounds:IsValid=true, Min=(X=543.913 Y=3733.556 Z=-161.085), Max=(X=4220.575 Y=4133.646 Z=1945.130) RuntimeGrid:None EditorOnly:0 RuntimeOnly:0 HLODRelevant:1
 |   |   |- [+] [  9]
 |   |   |   |- Guid:AB74120142217676C6EC818E6B49412B BaseClass: NativeClass:/Script/Engine.StaticMeshActor Name:StaticMeshActor_15 Label:SM_Cube10 SpatiallyLoaded:1 Bounds:IsValid=true, Min=(X=337.301 Y=2714.789 Z=0.000), Max=(X=537.301 Y=2914.789 Z=125.000) RuntimeGrid:None EditorOnly:0 RuntimeOnly:0 HLODRelevant:1 FolderPath:Block01 FolderGuid:7D23E5AE4C2A421F86AF6986D87E6D05
 |   |   |- [+] [ 10]
 |   |   |   |- Guid:2AE07F1E4D8AE16C47705695ADF9DA00 BaseClass: NativeClass:/Script/Engine.StaticMeshActor Name:StaticMeshActor_UAID_00FFDD0259B66B5A01_1169410031 Label:SM_Cube2 SpatiallyLoaded:1 Bounds:IsValid=true, Min=(X=-1050.000 Y=3460.000 Z=-50.000), Max=(X=1950.000 Y=6960.000 Z=0.000) RuntimeGrid:None EditorOnly:0 RuntimeOnly:0 HLODRelevant:1 FolderPath:Playground FolderGuid:C73F09FC4215536B1DCE2A9E0A830C70
 |   |   |- [+] [ 11]
 |   |   |   |- Guid:74E13C36403C5C76C8D6B4BADFEB88B8 BaseClass: NativeClass:/Script/Engine.StaticMeshActor Name:StaticMeshActor_UAID_00FFDD0259B66C5A01_1210293222 Label:Sphere SpatiallyLoaded:1 Bounds:IsValid=true, Min=(X=460.000 Y=5505.000 Z=293.000), Max=(X=560.000 Y=5605.000 Z=393.000) RuntimeGrid:None EditorOnly:0 RuntimeOnly:0 HLODRelevant:0
 |   |   |- [+] [ 12]
 |   |   |   |- Guid:6FD76BC84BA0EA1EF21BE0AA934CFF6F BaseClass: NativeClass:/Script/Engine.StaticMeshActor Name:StaticMeshActor_UAID_00FFDD0259B60F5601_1489837634 Label:S_Limestone_Slab_ubvtce1da_high3 SpatiallyLoaded:1 Bounds:IsValid=true, Min=(X=2022.669 Y=976.892 Z=-6.844), Max=(X=2660.831 Y=1581.413 Z=197.614) RuntimeGrid:None EditorOnly:0 RuntimeOnly:0 HLODRelevant:1
 |   |   |- [+] [ 13]
 |   |   |   |- Guid:CCFF262C46EEFFDF319E7F9539CE697E BaseClass: NativeClass:/Script/Engine.SkyAtmosphere Name:SkyAtmosphere_0 Label:SkyAtmosphere SpatiallyLoaded:0 Bounds:IsValid=true, Min=(X=0.000 Y=0.000 Z=1020.000), Max=(X=0.000 Y=0.000 Z=1020.000) RuntimeGrid:None EditorOnly:0 RuntimeOnly:0 HLODRelevant:0 FolderPath:Lighting FolderGuid:963EC3EB4002CCE9759E2EBA541A873A
 |   |   |- [+] [ 14]
 |   |   |   |- Guid:EC4E0C944CE6AC6E784BC6BB2916EA13 BaseClass: NativeClass:/Script/Engine.StaticMeshActor Name:StaticMeshActor_UAID_A4AE111137DC5EFB00_1110535423 Label:SM_SkySphere SpatiallyLoaded:0 Bounds:IsValid=true, Min=(X=-2238096.034 Y=-2238096.034 Z=-1638400.000), Max=(X=2238096.034 Y=2238096.034 Z=1638400.000) RuntimeGrid:None EditorOnly:0 RuntimeOnly:0 HLODRelevant:1 FolderPath:Lighting FolderGuid:963EC3EB4002CCE9759E2EBA541A873A
 |   |   |- [+] [ 15]
 |   |   |   |- Guid:F565E0974BCF996C192FA7A31CE1B90A BaseClass: NativeClass:/Script/Engine.StaticMeshActor Name:StaticMeshActor_UAID_00FFDD0259B60F5601_1434422633 Label:S_Limestone_Slab_ubvtce1da_high2 SpatiallyLoaded:1 Bounds:IsValid=true, Min=(X=-59.478 Y=3324.284 Z=-322.548), Max=(X=840.100 Y=4367.634 Z=52.292) RuntimeGrid:None EditorOnly:0 RuntimeOnly:0 HLODRelevant:1
 |   |   |- [+] [ 16]
 |   |   |   |- Guid:A804501D4EF6CC653623F48AD106CB84 BaseClass: NativeClass:/Script/Engine.StaticMeshActor Name:StaticMeshActor_UAID_00FFDD0259B66B5A01_1892157043 Label:SM_Ramp2 SpatiallyLoaded:1 Bounds:IsValid=true, Min=(X=160.000 Y=3875.000 Z=0.000), Max=(X=560.000 Y=4600.000 Z=200.000) RuntimeGrid:None EditorOnly:0 RuntimeOnly:0 HLODRelevant:1
 |   |   |- [+] [ 17]
 |   |   |   |- Guid:C15C2C8D4EA4ADE0BD1349AFD814988B BaseClass: NativeClass:/Script/Engine.StaticMeshActor Name:StaticMeshActor_14 Label:SM_Ramp3 SpatiallyLoaded:1 Bounds:IsValid=true, Min=(X=337.301 Y=2914.789 Z=0.000), Max=(X=537.301 Y=3414.789 Z=125.000) RuntimeGrid:None EditorOnly:0 RuntimeOnly:0 HLODRelevant:1 FolderPath:Block01 FolderGuid:7D23E5AE4C2A421F86AF6986D87E6D05
 |   |   |- [+] [ 18]
 |   |   |   |- Guid:9BFF363746062F457E2F92A4631DBA20 BaseClass: NativeClass:/Script/Engine.StaticMeshActor Name:StaticMeshActor_11 Label:SM_ChamferCube3 SpatiallyLoaded:1 Bounds:IsValid=true, Min=(X=431.699 Y=2391.699 Z=0.013), Max=(X=568.301 Y=2528.301 Z=100.013) RuntimeGrid:None EditorOnly:0 RuntimeOnly:0 HLODRelevant:0
 |   |   |- [+] [ 19]
 |   |   |   |- Guid:843CBDCA46685E35D0825798744085D3 BaseClass: NativeClass:/Script/Engine.StaticMeshActor Name:StaticMeshActor_UAID_00FFDD0259B66B5A01_1426237036 Label:S_Quarry_Cliff_ubjuddqda_high2 SpatiallyLoaded:1 Bounds:IsValid=true, Min=(X=-1083.205 Y=3485.264 Z=-1975.706), Max=(X=-734.182 Y=7408.699 Z=2014.614) RuntimeGrid:None EditorOnly:0 RuntimeOnly:0 HLODRelevant:1
 |   |   |- [+] [ 20]
 |   |   |   |- Guid:B785ED2844B84CFB91E7F39FE661CD99 BaseClass: NativeClass:/Script/Engine.DirectionalLight Name:DirectionalLight_0 Label:DirectionalLight SpatiallyLoaded:0 Bounds:IsValid=true, Min=(X=-4398046511104.000 Y=-4398046511104.000 Z=-4398046511104.000), Max=(X=4398046511104.000 Y=4398046511104.000 Z=4398046511104.000) RuntimeGrid:None EditorOnly:0 RuntimeOnly:0 HLODRelevant:0 FolderPath:Lighting FolderGuid:963EC3EB4002CCE9759E2EBA541A873A
 |   |   |- [+] [ 21]
 |   |   |   |- Guid:6A053ED246DA52E21A083E8EBC2F2D60 BaseClass: NativeClass:/Script/Engine.StaticMeshActor Name:StaticMeshActor_UAID_00FFDD0259B66B5A01_1408941035 Label:S_Quarry_Cliff_ubhvccfda_high2 SpatiallyLoaded:1 Bounds:IsValid=true, Min=(X=1656.203 Y=3491.181 Z=-3023.578), Max=(X=2582.444 Y=8224.972 Z=1942.958) RuntimeGrid:None EditorOnly:0 RuntimeOnly:0 HLODRelevant:1
 |   |   |- [+] [ 22]
 |   |   |   |- Guid:1398503C416ADE2B4A93B59FD06A3A2F BaseClass: NativeClass:/Script/Engine.StaticMeshActor Name:StaticMeshActor_UAID_00FFDD0259B66B5A01_1365537034 Label:S_Quarry_Cliff_ub3sahcda_high6 SpatiallyLoaded:1 Bounds:IsValid=true, Min=(X=-3366.087 Y=3705.025 Z=-161.085), Max=(X=310.575 Y=4082.888 Z=1945.130) RuntimeGrid:None EditorOnly:0 RuntimeOnly:0 HLODRelevant:1
 |   |   |- [+] [ 23]
 |   |   |   |- Guid:5E4DB4154690C8B4EB14EAA9E92FAAFF BaseClass: NativeClass:/Script/Engine.StaticMeshActor Name:StaticMeshActor_33 Label:SM_QuarterCylinder12 SpatiallyLoaded:1 Bounds:IsValid=true, Min=(X=1350.000 Y=700.000 Z=-80.000), Max=(X=1550.000 Y=900.000 Z=20.000) RuntimeGrid:None EditorOnly:0 RuntimeOnly:0 HLODRelevant:1 FolderPath:Cylinder FolderGuid:D075E5BA49330D3EC2503D81A7CF88D1
 |   |   |- [+] [ 24]
 |   |   |   |- Guid:7C172A0740B33B6D38EEF38A63E0B945 BaseClass: NativeClass:/Script/Engine.StaticMeshActor Name:StaticMeshActor_3 Label:SM_Ramp SpatiallyLoaded:1 Bounds:IsValid=true, Min=(X=720.000 Y=600.000 Z=0.000), Max=(X=1120.000 Y=800.000 Z=30.000) RuntimeGrid:None EditorOnly:0 RuntimeOnly:0 HLODRelevant:1
 |   |   |- [+] [ 25]
 |   |   |   |- Guid:316CF2A6494ACA4C0E4180A87D36AB8F BaseClass: NativeClass:/Script/Engine.ExponentialHeightFog Name:ExponentialHeightFog_0 Label:ExponentialHeightFog SpatiallyLoaded:0 Bounds:IsValid=true, Min=(X=-5600.000 Y=-50.000 Z=-6850.000), Max=(X=-5600.000 Y=-50.000 Z=-6850.000) RuntimeGrid:None EditorOnly:0 RuntimeOnly:0 HLODRelevant:0 FolderPath:Lighting FolderGuid:963EC3EB4002CCE9759E2EBA541A873A
 |   |   |- [+] [ 26]
 |   |   |   |- Guid:BB5B9BE2422803C7BF3842B4F08950C1 BaseClass: NativeClass:/Script/Engine.StaticMeshActor Name:StaticMeshActor_UAID_00FFDD0259B60F5601_1350231632 Label:S_Limestone_Slab_ubvtce1da_high SpatiallyLoaded:1 Bounds:IsValid=true, Min=(X=1279.243 Y=2121.771 Z=-23.650), Max=(X=1540.938 Y=2455.643 Z=85.394) RuntimeGrid:None EditorOnly:0 RuntimeOnly:0 HLODRelevant:1
 |   |   |- [+] [ 27]
 |   |   |   |- Guid:DE3A079B4635A6D8D620CCBC6C0BB1C0 BaseClass: NativeClass:/Script/Engine.StaticMeshActor Name:StaticMeshActor_35 Label:SM_QuarterCylinder14 SpatiallyLoaded:1 Bounds:IsValid=true, Min=(X=1550.000 Y=500.000 Z=-80.000), Max=(X=1750.000 Y=700.000 Z=20.000) RuntimeGrid:None EditorOnly:0 RuntimeOnly:0 HLODRelevant:1 FolderPath:Cylinder FolderGuid:D075E5BA49330D3EC2503D81A7CF88D1
 |   |   |- [+] [ 28]
 |   |   |   |- Guid:CBA69B384ED167D8CC89CFADC2E510D8 BaseClass: NativeClass:/Script/Engine.StaticMeshActor Name:StaticMeshActor_UAID_00FFDD0259B66B5A01_1469108037 Label:S_Quarry_Cliff_ub3sahcda_high7 SpatiallyLoaded:1 Bounds:IsValid=true, Min=(X=543.913 Y=6441.805 Z=-161.085), Max=(X=4220.575 Y=6975.259 Z=1945.130) RuntimeGrid:None EditorOnly:0 RuntimeOnly:0 HLODRelevant:1
 |   |   |- [+] [ 29]
 |   |   |   |- Guid:EA9C6C094B976D14319539B7716EA00D BaseClass: NativeClass:/Script/Engine.StaticMeshActor Name:StaticMeshActor_UAID_00FFDD0259B60E5601_1809298439 Label:S_Quarry_Cliff_ub3sahcda_high3 SpatiallyLoaded:1 Bounds:IsValid=true, Min=(X=543.913 Y=3261.805 Z=-161.085), Max=(X=4220.575 Y=3795.259 Z=1945.130) RuntimeGrid:None EditorOnly:0 RuntimeOnly:0 HLODRelevant:1
 |   |   |- [+] [ 30]
 |   |   |   |- Guid:504F76D944A2BDCC0A3AA8BD84F93017 BaseClass: NativeClass:/Script/Engine.StaticMeshActor Name:StaticMeshActor_UAID_00FFDD0259B60F5601_1646980639 Label:S_Quarry_Cliff_ubhwbepda_high2 SpatiallyLoaded:1 Bounds:IsValid=true, Min=(X=2226.913 Y=-202.515 Z=-184.270), Max=(X=3253.718 Y=841.522 Z=1883.023) RuntimeGrid:None EditorOnly:0 RuntimeOnly:0 HLODRelevant:1
 |   |   |- [+] [ 31]
 |   |   |   |- Guid:A26BBB854B85C4092D1F0095ED64A6F3 BaseClass: NativeClass:/Script/Engine.StaticMeshActor Name:StaticMeshActor_UAID_00FFDD0259B60F5601_1096199624 Label:S_Limestone_Rocks_ubvsaf3da_high SpatiallyLoaded:1 Bounds:IsValid=true, Min=(X=1353.997 Y=507.985 Z=15.360), Max=(X=1745.982 Y=892.016 Z=56.488) RuntimeGrid:None EditorOnly:0 RuntimeOnly:0 HLODRelevant:1
 |   |   |- [+] [ 32]
 |   |   |   |- Guid:F1924B8D48954B30891B2DB6A694F9CC BaseClass: NativeClass:/Script/Engine.StaticMeshActor Name:StaticMeshActor_1 Label:SM_Cube SpatiallyLoaded:1 Bounds:IsValid=true, Min=(X=0.000 Y=0.000 Z=-50.000), Max=(X=3000.000 Y=3500.000 Z=0.000) RuntimeGrid:None EditorOnly:0 RuntimeOnly:0 HLODRelevant:1 FolderPath:Playground FolderGuid:C73F09FC4215536B1DCE2A9E0A830C70
 |   |   |- [+] [ 33]
 |   |   |   |- Guid:6CFB67064E53D6A80E3CC399F0EAED80 BaseClass: NativeClass:/Script/Engine.StaticMeshActor Name:StaticMeshActor_UAID_00FFDD0259B60F5601_1614676638 Label:S_Quarry_Cliff_ubhwbepda_high SpatiallyLoaded:1 Bounds:IsValid=true, Min=(X=2214.466 Y=2660.777 Z=-144.270), Max=(X=3366.402 Y=3800.017 Z=1923.023) RuntimeGrid:None EditorOnly:0 RuntimeOnly:0 HLODRelevant:1
 |   |   |- [+] [ 34]
 |   |   |   |- Guid:21E5885D4EEB9313A52C67B31A93C9C0 BaseClass: NativeClass:/Script/Engine.StaticMeshActor Name:StaticMeshActor_UAID_00FFDD0259B60F5601_1551845637 Label:S_Limestone_Slab_ubvtce1da_high6 SpatiallyLoaded:1 Bounds:IsValid=true, Min=(X=1519.169 Y=1548.587 Z=-6.844), Max=(X=2157.331 Y=2153.108 Z=197.614) RuntimeGrid:None EditorOnly:0 RuntimeOnly:0 HLODRelevant:1
 |   |   |- [+] [ 35]
 |   |   |   |- Guid:2FB58999456391D349DC0F86DAC136ED BaseClass: NativeClass:/Script/Engine.SkyLight Name:SkyLight_1 Label:SkyLight SpatiallyLoaded:0 Bounds:IsValid=true, Min=(X=0.000 Y=0.000 Z=690.000), Max=(X=0.000 Y=0.000 Z=690.000) RuntimeGrid:None EditorOnly:0 RuntimeOnly:0 HLODRelevant:0 FolderPath:Lighting FolderGuid:963EC3EB4002CCE9759E2EBA541A873A
 |   |   |- [+] [ 36]
 |   |   |   |- Guid:3F6C09DD449F1FD5767D99A898860649 BaseClass: NativeClass:/Script/Engine.StaticMeshActor Name:StaticMeshActor_UAID_00FFDD0259B66B5A01_1469111039 Label:S_Quarry_Cliff_ub3sahcda_high9 SpatiallyLoaded:1 Bounds:IsValid=true, Min=(X=543.913 Y=6913.556 Z=-161.085), Max=(X=4220.575 Y=7313.646 Z=1945.130) RuntimeGrid:None EditorOnly:0 RuntimeOnly:0 HLODRelevant:1
 |   |   |- [+] [ 37]
 |   |   |   |- Guid:A62A9EE8460B327ECE8E21830711F178 BaseClass: NativeClass:/Script/Engine.StaticMeshActor Name:StaticMeshActor_UAID_00FFDD0259B66C5A01_1222901223 Label:Sphere2 SpatiallyLoaded:1 Bounds:IsValid=true, Min=(X=-60.000 Y=5505.000 Z=293.000), Max=(X=40.000 Y=5605.000 Z=393.000) RuntimeGrid:None EditorOnly:0 RuntimeOnly:0 HLODRelevant:0
 |   |   |- [+] [ 38]
 |   |   |   |- Guid:211463D64B0BBB530A1B049841968BAE BaseClass: NativeClass:/Script/Engine.StaticMeshActor Name:StaticMeshActor_UAID_00FFDD0259B6235401_1964234023 Label:SM_Cube14 SpatiallyLoaded:1 Bounds:IsValid=true, Min=(X=2360.000 Y=535.093 Z=0.000), Max=(X=2686.231 Y=842.836 Z=225.000) RuntimeGrid:None EditorOnly:0 RuntimeOnly:0 HLODRelevant:1 FolderPath:Block01 FolderGuid:7D23E5AE4C2A421F86AF6986D87E6D05
 |   |   |- [+] [ 39]
 |   |   |   |- Guid:4BC4F1A24304E025D44B8DA697903255 BaseClass: NativeClass:/Script/Engine.StaticMeshActor Name:StaticMeshActor_UAID_00FFDD0259B66C5A01_1225181224 Label:Sphere3 SpatiallyLoaded:1 Bounds:IsValid=true, Min=(X=-469.000 Y=5505.000 Z=293.000), Max=(X=-369.000 Y=5605.000 Z=393.000) RuntimeGrid:None EditorOnly:0 RuntimeOnly:0 HLODRelevant:0
 |   |   |- [+] [ 40]
 |   |   |   |- Guid:926FBA4943D77D1DBC96BABF430F1692 BaseClass: NativeClass:/Script/Engine.StaticMeshActor Name:StaticMeshActor_UAID_00FFDD0259B60E5601_1832356440 Label:S_Quarry_Cliff_ub3sahcda_high4 SpatiallyLoaded:1 Bounds:IsValid=true, Min=(X=-3366.087 Y=3261.805 Z=-161.085), Max=(X=310.575 Y=3795.259 Z=1945.130) RuntimeGrid:None EditorOnly:0 RuntimeOnly:0 HLODRelevant:1
 |   |   |- [+] [ 41]
 |   |   |   |- Guid:D9706FE5481EB10EB35A098FAB21445E BaseClass: NativeClass:/Script/Engine.StaticMeshActor Name:StaticMeshActor_UAID_00FFDD0259B60E5601_1928945446 Label:S_Quarry_Cliff_ubjuddqda_high SpatiallyLoaded:1 Bounds:IsValid=true, Min=(X=-133.205 Y=-394.736 Z=-1975.706), Max=(X=215.818 Y=3528.699 Z=2014.614) RuntimeGrid:None EditorOnly:0 RuntimeOnly:0 HLODRelevant:1
 |   |   |- [+] [ 42]
 |   |   |   |- Guid:08F9DC56444CFFF3F13B379E81EF05BC BaseClass: NativeClass:/Script/Engine.StaticMeshActor Name:StaticMeshActor_16 Label:SM_Cube11 SpatiallyLoaded:1 Bounds:IsValid=true, Min=(X=1930.000 Y=530.000 Z=-60.000), Max=(X=2230.000 Y=830.000 Z=140.000) RuntimeGrid:None EditorOnly:0 RuntimeOnly:0 HLODRelevant:1 FolderPath:Block03 FolderGuid:7B7009C345D3D6DD94D3429E1D79C034
 |   |   |- [+] [ 43]
 |   |   |   |- Guid:94F6D9A645798F5BAD0B58BEED8F27F5 BaseClass: NativeClass:/Script/Engine.StaticMeshActor Name:StaticMeshActor_32 Label:SM_QuarterCylinder11 SpatiallyLoaded:1 Bounds:IsValid=true, Min=(X=1550.000 Y=700.000 Z=-80.000), Max=(X=1750.000 Y=900.000 Z=20.000) RuntimeGrid:None EditorOnly:0 RuntimeOnly:0 HLODRelevant:1 FolderPath:Cylinder FolderGuid:D075E5BA49330D3EC2503D81A7CF88D1
 |   |   |- [+] [ 44]
 |   |   |   |- Guid:0A733B864C327F0B589EC8BBDD0265BC BaseClass: NativeClass:/Script/Engine.StaticMeshActor Name:StaticMeshActor_13 Label:SM_Cube9 SpatiallyLoaded:1 Bounds:IsValid=true, Min=(X=650.049 Y=2233.022 Z=0.000), Max=(X=1314.837 Y=2836.182 Z=100.000) RuntimeGrid:None EditorOnly:0 RuntimeOnly:0 HLODRelevant:1 FolderPath:Block01 FolderGuid:7D23E5AE4C2A421F86AF6986D87E6D05
 |   |   |- [+] [ 45]
 |   |   |   |- Guid:37FF61EB47CEFD07FA887DA05532ABAD BaseClass: NativeClass:/Script/Engine.StaticMeshActor Name:StaticMeshActor_UAID_00FFDD0259B60F5601_1674433640 Label:S_Quarry_Cliff_ubhwbepda_high3 SpatiallyLoaded:1 Bounds:IsValid=true, Min=(X=-330.530 Y=-359.470 Z=-204.270), Max=(X=929.986 Y=898.427 Z=1863.023) RuntimeGrid:None EditorOnly:0 RuntimeOnly:0 HLODRelevant:1
 |   |   |- [+] [ 46]
 |   |   |   |- Guid:2AE562DD4761C10AE4795BB7BD2DEACD BaseClass: NativeClass:/Script/Engine.StaticMeshActor Name:StaticMeshActor_UAID_00FFDD0259B60F5601_1537128635 Label:S_Limestone_Slab_ubvtce1da_high4 SpatiallyLoaded:1 Bounds:IsValid=true, Min=(X=1919.169 Y=1148.587 Z=-6.844), Max=(X=2557.331 Y=1753.108 Z=197.614) RuntimeGrid:None EditorOnly:0 RuntimeOnly:0 HLODRelevant:1
 |   |   |- [+] [ 47]
 |   |   |   |- Guid:F31FC2FA49A4C78A2C91A7A5015B9831 BaseClass: NativeClass:/Script/Engine.StaticMeshActor Name:StaticMeshActor_UAID_00FFDD0259B66B5A01_1928582044 Label:SM_Cube12 SpatiallyLoaded:1 Bounds:IsValid=true, Min=(X=160.000 Y=4590.000 Z=-50.000), Max=(X=560.000 Y=5140.000 Z=200.000) RuntimeGrid:None EditorOnly:0 RuntimeOnly:0 HLODRelevant:1 FolderPath:Block03 FolderGuid:7B7009C345D3D6DD94D3429E1D79C034
 |   |   |- [+] [ 48]
 |   |   |   |- Guid:6E437891449A8C2C052AB1A201C83CFA BaseClass: NativeClass:/Script/Engine.StaticMeshActor Name:StaticMeshActor_UAID_00FFDD0259B60E5601_1869112441 Label:S_Quarry_Cliff_ubhvccfda_high SpatiallyLoaded:1 Bounds:IsValid=true, Min=(X=2836.203 Y=-888.819 Z=-3023.578), Max=(X=3762.444 Y=3844.972 Z=1942.958) RuntimeGrid:None EditorOnly:0 RuntimeOnly:0 HLODRelevant:1
 |   |   |- [+] [ 49]
 |   |   |   |- Guid:5D42EF364C1E6DF500062482D681F64A BaseClass: NativeClass:/Script/Engine.StaticMeshActor Name:StaticMeshActor_UAID_00FFDD0259B66B5A01_1797852042 Label:Cube SpatiallyLoaded:1 Bounds:IsValid=true, Min=(X=340.000 Y=5005.000 Z=201.000), Max=(X=440.000 Y=5105.000 Z=301.000) RuntimeGrid:None EditorOnly:0 RuntimeOnly:0 HLODRelevant:0
 |   |   |- [+] [ 50]
 |   |   |   |- Guid:3A00AA1C422CE54C0BDB60BAF471BFBB BaseClass: NativeClass:/Script/Engine.PlayerStart Name:PlayerStart_0 Label:PlayerStart SpatiallyLoaded:0 Bounds:IsValid=true, Min=(X=282.000 Y=4304.000 Z=224.013), Max=(X=362.000 Y=4384.000 Z=408.013) RuntimeGrid:None EditorOnly:0 RuntimeOnly:0 HLODRelevant:0
 |   |   |- [+] [ 51]
 |   |   |   |- Guid:82D024F94B84A826BDA3BCBD88824287 BaseClass:/Game/BP_CoinPickup.BP_CoinPickup_C NativeClass:/Script/Engine.StaticMeshActor Name:BP_CoinPickup_C_UAID_00FFDD0259B66C5A01_1394086226 Label:BP_CoinPickup SpatiallyLoaded:1 Bounds:IsValid=true, Min=(X=145.089 Y=4825.022 Z=82.089), Max=(X=632.911 Y=4946.978 Z=569.911) RuntimeGrid:None EditorOnly:0 RuntimeOnly:0 HLODRelevant:0
 |   |   |- [+] [ 52]
 |   |   |   |- Guid:E65FF5CB457CEB24DFC97BB2C73FD735 BaseClass: NativeClass:/Script/Engine.StaticMeshActor Name:StaticMeshActor_UAID_00FFDD0259B66B5A01_1469111038 Label:S_Quarry_Cliff_ub3sahcda_high8 SpatiallyLoaded:1 Bounds:IsValid=true, Min=(X=-3366.087 Y=6441.805 Z=-161.085), Max=(X=310.575 Y=6975.259 Z=1945.130) RuntimeGrid:None EditorOnly:0 RuntimeOnly:0 HLODRelevant:1
 |   |   |- [+] [ 53]
 |   |   |   |- Guid:409158E94817DC9743D7A29A16EE5600 BaseClass: NativeClass:/Script/Engine.DirectionalLight Name:DirectionalLight_UAID_00FFDD0259B66B5A01_1621714041 Label:DirectionalLight2 SpatiallyLoaded:0 Bounds:IsValid=true, Min=(X=-4398046511104.000 Y=-4398046511104.000 Z=-4398046511104.000), Max=(X=4398046511104.000 Y=4398046511104.000 Z=4398046511104.000) RuntimeGrid:None EditorOnly:0 RuntimeOnly:0 HLODRelevant:0 FolderPath:Lighting FolderGuid:963EC3EB4002CCE9759E2EBA541A873A
 |   |   |- [+] [ 54]
 |   |   |   |- Guid:0741C71B4517A08335BF6BB62042EC53 BaseClass: NativeClass:/Script/Engine.StaticMeshActor Name:StaticMeshActor_UAID_00FFDD0259B66B5A01_2069164045 Label:SM_Cube13 SpatiallyLoaded:1 Bounds:IsValid=true, Min=(X=160.000 Y=5631.000 Z=-50.000), Max=(X=560.000 Y=6856.000 Z=200.000) RuntimeGrid:None EditorOnly:0 RuntimeOnly:0 HLODRelevant:1 FolderPath:Block03 FolderGuid:7B7009C345D3D6DD94D3429E1D79C034
 |   |   |- [+] [ 55]
 |   |   |   |- Guid:82561FF248E44B4DA5F8A99C8FCE2D85 BaseClass:/Game/BP_CollectibleArtifact1.BP_CollectibleArtifact1_C NativeClass:/Script/Engine.StaticMeshActor Name:BP_CollectibleArtifact1_C_UAID_00FFDD0259B6635D01_2141207793 Label:BP_CollectibleArtifact1 SpatiallyLoaded:1 Bounds:IsValid=true, Min=(X=270.977 Y=4952.580 Z=241.600), Max=(X=327.023 Y=4991.420 Z=342.187) RuntimeGrid:None EditorOnly:0 RuntimeOnly:0 HLODRelevant:0
 |- ContainerInstances:
 |- [+] MainContainer:
 |   |-        ID: 0x0000000000000000
 |   |-    Bounds: IsValid=false, Min=(X=0.000 Y=0.000 Z=0.000), Max=(X=0.000 Y=0.000 Z=0.000)
 |   |- Transform: 0.000000,0.000000,0.000000|0.000000,0.000000,-0.000000|1.000000,1.000000,1.000000
 |   |- Container: /Game/ThirdPerson/Maps/ThirdPersonMap
----------------------------------------------------------------------------------------------------------------
ThirdPersonMap - Persistent Level
----------------------------------------------------------------------------------------------------------------
Always loaded Actor Count: 70 

----------------------------------------------------------------------------------------------------------------
ThirdPersonMap - Runtime Spatial Hash - Streaming Grid - MainGrid
----------------------------------------------------------------------------------------------------------------
            Origin: X=0.000 Y=0.000 Z=0.000
         Cell Size: 12800
      World Bounds: IsValid=false, Min=(X=0.000 Y=0.000 Z=0.000), Max=(X=0.000 Y=0.000 Z=0.000)
     Loading Range: 25600.00
Block Slow Loading: No
 ClientOnlyVisible: No

[+] Grid Levels: 1
 |- Level  0: Cell Count    0 | Cell Size   12800 | Actor Count    0 (0.0%)

[+] Content of Grid Level 0

